<?xml version="1.0" encoding="UTF-8" standalone="no"?>
<svg
   width="536.88489"
   height="453.74612"
   version="1.1"
   id="svg30"
   sodipodi:docname="decentralization_metric.svg"
   inkscape:version="1.1.2 (0a00cf5339, 2022-02-04)"
   xmlns:inkscape="http://www.inkscape.org/namespaces/inkscape"
   xmlns:sodipodi="http://sodipodi.sourceforge.net/DTD/sodipodi-0.dtd"
   xmlns="http://www.w3.org/2000/svg"
   xmlns:svg="http://www.w3.org/2000/svg">
  <sodipodi:namedview
     id="namedview32"
     pagecolor="#505050"
     bordercolor="#eeeeee"
     borderopacity="1"
     inkscape:pageshadow="0"
     inkscape:pageopacity="0"
     inkscape:pagecheckerboard="0"
     showgrid="false"
     inkscape:zoom="1.3850283"
     inkscape:cx="259.20047"
     inkscape:cy="109.02304"
     inkscape:window-width="2404"
     inkscape:window-height="1416"
     inkscape:window-x="1032"
     inkscape:window-y="22"
     inkscape:window-maximized="1"
     inkscape:current-layer="svg30"
     fit-margin-top="0"
     fit-margin-left="0"
     fit-margin-right="0"
     fit-margin-bottom="0"
     showguides="true"
     inkscape:guide-bbox="true">
    <sodipodi:guide
       position="426.61791,532.77172"
       orientation="1,0"
       id="guide30016" />
  </sodipodi:namedview>
  <defs
     id="defs7">
    <marker
       id="arrow"
       markerWidth="8"
       markerHeight="6"
       refX="5"
       refY="3"
       orient="auto">
      <polygon
         points="0,0 2,3 0,6 8,3 "
         style="fill:#000000;stroke:none"
         id="polygon4" />
    </marker>
  </defs>
  <polygon
     id="B"
     points="50,450 450,50 450,450 "
     style="fill:#6b6798;fill-opacity:1"
     transform="translate(36.904218,-45.86269)" />
  <path
     id="A"
     d="m 86.904218,404.13731 400.000002,-400 a 400,400 0 0 1 -400.000002,400 z"
     style="fill:#2b293d;stroke:#f0f0f5;stroke-opacity:1;stroke-width:2;stroke-miterlimit:4;stroke-dasharray:none;fill-opacity:1" />
  <line
     class="axis"
     x1="86.904221"
     y1="404.1373"
     x2="486.90421"
     y2="404.1373"
     id="line11"
     style="stroke:#f0f0f5;stroke-width:2;stroke-opacity:1;stroke-miterlimit:4;stroke-dasharray:none" />
  <line
     class="axis"
     x1="486.90421"
     y1="404.1373"
     x2="486.90421"
     y2="8.1373062"
     id="line13"
     style="stroke:#f0f0f5;stroke-opacity:1;stroke-width:2;stroke-miterlimit:4;stroke-dasharray:none" />
  <!-- Axis labels -->
  <text
     x="21.436928"
     y="450.31879"
     id="text15"
     style="fill:#f0f0f5;fill-opacity:1">Cumulative share of people from lowest to highest governance power</text>
  <text
     x="446.40317"
     y="427.5524"
     id="text17"
     style="fill:#f0f0f5;fill-opacity:1">100%</text>
  <text
     x="-404.27573"
     y="521.36298"
     dominant-baseline="central"
     transform="rotate(-90)"
     id="text19"
     style="fill:#f0f0f5;fill-opacity:1">Cumulative share of governance power</text>
  <text
     x="-43.945816"
     y="510.24326"
     dominant-baseline="central"
     transform="rotate(-90)"
     id="text21"
     style="fill:#f0f0f5;fill-opacity:1">100%</text>
  <!-- Other Labels -->
  <text
     x="-47.197079"
     y="322.55164"
     dominant-baseline="central"
     transform="rotate(-45)"
     id="text23"
     style="fill:#f0f0f5;fill-opacity:1">Line of equality at 45$^\circ$</text>
  <text
     x="57.749783"
     y="446.47656"
     dominant-baseline="central"
     transform="rotate(-45)"
     id="text23-3"
     style="font-size:15px;font-family:'Liberation Sans', sans-serif;text-anchor:middle;fill:#f0f0f5;fill-opacity:1;stroke:none"><tspan
       sodipodi:role="line"
       id="tspan22263"
       x="57.749783"
       y="446.47656">$Q_u(t)$</tspan></text>
  <text
     style="font-weight:bold;font-size:22px;fill:#f0f0f5;fill-opacity:1"
     x="426.90421"
     y="124.13731"
     id="text2397"><tspan
       style="font-style:normal;font-variant:normal;font-weight:normal;font-stretch:normal;font-family:'Liberation Sans', sans-serif;-inkscape-font-specification:'Liberation Sans, sans-serif';fill:#f0f0f5;fill-opacity:1"
       id="tspan2768">$A$</tspan></text>
  <text
     style="font-weight:bold;font-size:22px;fill:#f0f0f5;fill-opacity:1"
     x="426.66571"
     y="326.83768"
     id="text28"><tspan
       style="font-style:normal;font-variant:normal;font-weight:normal;font-stretch:normal;font-family:'Liberation Sans', sans-serif;-inkscape-font-specification:'Liberation Sans, sans-serif';fill:#f0f0f5;fill-opacity:1"
       id="tspan4804">$B$</tspan></text>
</svg>
